[gd_scene load_steps=2 format=2]

[ext_resource path="res://source/scenes/world/World.cs" type="Script" id=1]

[node name="World" type="Node2D"]
script = ExtResource( 1 )

[node name="Camera2D" type="Camera2D" parent="."]
current = true
